US Presidential Elections 2020
…
votes_california = dat |>
  filter(state == "california" & year == 2020) |>
  mutate(propvotes = round(candidatevotes / totalvotes, 2)) |>
  select(county_name, candidate, propvotes, candidatevotes)

Analysis of California

Number of votes that each candidate received in each of the counties in California

votes_california |> 
  group_by(county_name, candidate) |>
  summarise(sum_votes = sum(candidatevotes))

# A tibble: 232 × 3
# Groups:   county_name [58]
   county_name candidate         sum_votes
   <chr>       <chr>                 <dbl>
 1 alameda     DONALD J TRUMP       136309
 2 alameda     JO JORGENSEN           6295
 3 alameda     JOSEPH R BIDEN JR    617659
 4 alameda     OTHER                  9807
 5 alpine      DONALD J TRUMP          244
 6 alpine      JO JORGENSEN             15
 7 alpine      JOSEPH R BIDEN JR       476
 8 alpine      OTHER                     6
 9 amador      DONALD J TRUMP        13585
10 amador      JO JORGENSEN            349
# ℹ 222 more rows
…
