North Atlantic Storms
…
Number of Storms per Year

Exploration: Number of Storms per Year

# not exactly the counts we're looking for
storm_counts = storms |>
  count(year, name)

storm_counts

# A tibble: 655 × 3
    year name         n
   <dbl> <chr>    <int>
 1  1975 Amy         31
 2  1975 Blanche     20
 3  1975 Caroline    33
 4  1975 Doris       29
 5  1975 Eloise      46
 6  1975 Faye        19
 7  1975 Gladys      46
 8  1975 Hallie      14
 9  1976 Belle       18
10  1976 Candice     11
# ℹ 645 more rows

Exploration: Number of Storms per Year

# these are the counts we want
storm_count_per_year = storms |>
  count(year, name) |> 
  count(year, name = "count")

storm_count_per_year

# A tibble: 48 × 2
    year count
   <dbl> <int>
 1  1975     8
 2  1976     7
 3  1977     6
 4  1978    11
 5  1979     8
 6  1980    11
 7  1981    11
 8  1982     5
 9  1983     4
10  1984    12
# ℹ 38 more rows
…
