Lec-12: Graphics with ggplot
…
# import CSV file
dat = read_csv(file = url, col_types = "dDdc")

# letters in col_types correspond to:
# D: date
# d: double
# c: character

Once you’ve imported the data, you can simply type the name of the table to see a few rows:

dat

# A tibble: 276 × 4
   Price Date        Year Month
   <dbl> <date>     <dbl> <chr>
 1 0.975 2000-01-01  2000 Jan  
 2 0.962 2000-02-01  2000 Feb  
 3 0.931 2000-03-01  2000 Mar  
 4 0.939 2000-04-01  2000 Apr  
 5 0.852 2000-05-01  2000 May  
 6 0.838 2000-06-01  2000 Jun  
 7 0.868 2000-07-01  2000 Jul  
 8 0.893 2000-08-01  2000 Aug  
 9 0.92  2000-09-01  2000 Sep  
10 0.923 2000-10-01  2000 Oct  
# ℹ 266 more rows
…
